Change Component Footprint: Designator=J7 Old Footprint=MICROFIT 2x2 Right Angle New Footprint=MICROFIT 2x2 Vertical
Change Component Footprint: Designator=J7A Old Footprint=MICROFIT 2x2 Right Angle New Footprint=MICROFIT 2x2 Vertical
Change Component Footprint: Designator=J6 Old Footprint=MICROFIT 3x2 Right Angle New Footprint=MICROFIT 3x2 Vertical
Change Component Footprint: Designator=J6A Old Footprint=MICROFIT 3x2 Right Angle New Footprint=MICROFIT 3x2 Vertical
