Removed Pin From Net: NetName=GND Pin=DL1-K
Removed Pin From Net: NetName=GND Pin=DL2-K
Removed Pin From Net: NetName=GND Pin=DL3-K
Removed Pin From Net: NetName=+24 Pin=J1-1
Removed Pin From Net: NetName=+5 Pin=J1-3
Removed Pin From Net: NetName=GND Pin=J1-4
Removed Pin From Net: NetName=+24 Pin=J1A-1
Removed Pin From Net: NetName=+5 Pin=J1A-3
Removed Pin From Net: NetName=GND Pin=J1A-4
Removed Pin From Net: NetName=+12 Pin=J13-2
Removed Pin From Net: NetName=+12 Pin=J14-2
Removed Pin From Net: NetName=+5 Pin=R1-2
Removed Pin From Net: NetName=+24 Pin=R3-2
Change Net Name : Old Net Name=+12 New Net Name=S_+12
Added Pin To Net: NetName=+12 Pin=J13-2
Added Pin To Net: NetName=+12 Pin=J14-2
Added Net: Name=+12
Added Pin To Net: NetName=S_+5 Pin=J1-3
Added Pin To Net: NetName=S_+5 Pin=J1A-3
Added Pin To Net: NetName=S_+5 Pin=R1-2
Added Net: Name=S_+5
Added Pin To Net: NetName=S_+24 Pin=J1-1
Added Pin To Net: NetName=S_+24 Pin=J1A-1
Added Pin To Net: NetName=S_+24 Pin=R3-2
Added Net: Name=S_+24
Added Pin To Net: NetName=S_GND Pin=DL1-K
Added Pin To Net: NetName=S_GND Pin=DL2-K
Added Pin To Net: NetName=S_GND Pin=DL3-K
Added Pin To Net: NetName=S_GND Pin=J1-4
Added Pin To Net: NetName=S_GND Pin=J1A-4
Added Net: Name=S_GND
Added Room: Name=Controler
