Removed Pin From Net: NetName=GND Pin=DL1-2
Removed Pin From Net: NetName=GND Pin=DL2-2
Removed Pin From Net: NetName=GND Pin=DL3-2
Removed Pin From Net: NetName=H_3 Pin=DL4-2
Removed Pin From Net: NetName=H_2 Pin=DL5-2
Removed Pin From Net: NetName=H_1 Pin=DL6-2
Removed Pin From Net: NetName=+5 Pin=R4-2
Removed Pin From Net: NetName=+5 Pin=R5-2
Removed Pin From Net: NetName=+5 Pin=R6-2
Removed Member From Class: ClassName=Controler Member=DL4
Removed Member From Class: ClassName=Controler Member=DL5
Removed Member From Class: ClassName=Controler Member=DL6
Removed Member From Class: ClassName=Controler Member=R4
Removed Member From Class: ClassName=Controler Member=R5
Removed Member From Class: ClassName=Controler Member=R6
Change Component Footprint: Designator=DL1 Old Footprint=3.2X1.6X1.1 New Footprint=LED_3MM
Change Component Footprint: Designator=DL2 Old Footprint=3.2X1.6X1.1 New Footprint=LED_3MM
Change Component Footprint: Designator=DL3 Old Footprint=3.2X1.6X1.1 New Footprint=LED_4x2.8mm
Change Component Footprint: Designator=R1 Old Footprint=J1-0603 New Footprint=0805_R
Change Component Footprint: Designator=R2 Old Footprint=J1-0603 New Footprint=0805_R
Change Component Footprint: Designator=R3 Old Footprint=J1-0603 New Footprint=0805_R
Change Component Comment : Designator=R1 Old Comment= New Comment=1k
Change Component Comment : Designator=R2 Old Comment= New Comment=2k2
Change Component Comment : Designator=R3 Old Comment= New Comment=4k7
Change Component Comment : Designator=DL2 Old Comment=YELLOW New Comment=RED
Change component parameters: Designator = "DL1"; Footprint = "LED_3MM"; UniqueID = "\WPPQBDLV"
Change component parameters. Clean all parameters for all variants
Change component parameters (AddParameter): Name = "Supplier"; Value = ""; VariantName = "[No Variations]"
Change component parameters (AddParameter): Name = "Symbol"; Value = ""; VariantName = "[No Variations]"
Change component parameters (AddParameter): Name = "URL"; Value = ""; VariantName = "[No Variations]"
Change component parameters: Designator = "DL2"; Footprint = "LED_3MM"; UniqueID = "\IKANXHWR"
Change component parameters. Clean all parameters for all variants
Change component parameters (AddParameter): Name = "Supplier"; Value = ""; VariantName = "[No Variations]"
Change component parameters (AddParameter): Name = "Symbol"; Value = ""; VariantName = "[No Variations]"
Change component parameters (AddParameter): Name = "URL"; Value = ""; VariantName = "[No Variations]"
Change component parameters: Designator = "DL3"; Footprint = "LED_4x2.8mm"; UniqueID = "\YBGSILNH"
Change component parameters. Clean all parameters for all variants
Change component parameters (AddParameter): Name = "Supplier"; Value = "TME"; VariantName = "[No Variations]"
Change component parameters (AddParameter): Name = "Symbol"; Value = "L-1034HD"; VariantName = "[No Variations]"
Change component parameters (AddParameter): Name = "URL"; Value = "http://www.tme.eu/pl/details/l-1034hd/diody-led-tht-prostokatne/kingbright-electronic/l-1034hdt/#t7b229469c525d6f803b8a196bca57fee"; VariantName = "[No Variations]"
Change component parameters: Designator = "R1"; Footprint = "0805_R"; UniqueID = "\JJPGKOSP"
Change component parameters. Clean all parameters for all variants
Change component parameters (AddParameter): Name = "Supplier"; Value = ""; VariantName = "[No Variations]"
Change component parameters (AddParameter): Name = "Symbol"; Value = ""; VariantName = "[No Variations]"
Change component parameters (AddParameter): Name = "URL"; Value = ""; VariantName = "[No Variations]"
Change component parameters: Designator = "R2"; Footprint = "0805_R"; UniqueID = "\PTYKDNRE"
Change component parameters. Clean all parameters for all variants
Change component parameters (AddParameter): Name = "Supplier"; Value = ""; VariantName = "[No Variations]"
Change component parameters (AddParameter): Name = "Symbol"; Value = ""; VariantName = "[No Variations]"
Change component parameters (AddParameter): Name = "URL"; Value = ""; VariantName = "[No Variations]"
Change component parameters: Designator = "R3"; Footprint = "0805_R"; UniqueID = "\YYCXPBTQ"
Change component parameters. Clean all parameters for all variants
Change component parameters (AddParameter): Name = "Supplier"; Value = ""; VariantName = "[No Variations]"
Change component parameters (AddParameter): Name = "Symbol"; Value = ""; VariantName = "[No Variations]"
Change component parameters (AddParameter): Name = "URL"; Value = ""; VariantName = "[No Variations]"
Added Pin To Net: NetName=GND Pin=DL1-K
Added Pin To Net: NetName=GND Pin=DL2-K
Added Pin To Net: NetName=GND Pin=DL3-K
Added Pin To Net: NetName=NetDL1_A Pin=DL1-A
Added Pin To Net: NetName=NetDL1_A Pin=R1-1
Added Net: Name=NetDL1_A
Added Pin To Net: NetName=NetDL2_A Pin=DL2-A
Added Pin To Net: NetName=NetDL2_A Pin=R2-1
Added Net: Name=NetDL2_A
Added Pin To Net: NetName=NetDL3_A Pin=DL3-A
Added Pin To Net: NetName=NetDL3_A Pin=R3-1
Added Net: Name=NetDL3_A
